{
  "storeHouse": [
    {
      "sourceName": "storeHouse",
      "sourceUrl": "https://cdn.jsdelivr.net/gh/mlabalabala/TVResource@main/boxCfg/ori_source.json"
    },
    //{
    //  "sourceName": "😍貂蝉带飞😍",
    //  "sourceUrl": "http://52bsj.vip:98/yp"
    //  "sourceUrl": "https://raw.iqiq.io/mlabalabala/TVResource/main/boxCfg/52pjyp.json"
    //},
  ]
}